Baixa todas as composições das comissões atuais do Senado e da Câmara — fetch_all_composicao_comissao • agoradigital
…
#> Please use `cols = c(MEMBROS.MEMBROS_ROW)`
#> Warning: `cols` is now required.
#> Please use `cols = c()`
#> [1] "Baixando composição da comissão CSP no(a) senado"
#> Warning: `cols` is now required.
#> Please use `cols = c(MEMBROS.MEMBROS_ROW)`
#> Warning: `cols` is now required.
#> Please use `cols = c()`
#> [1] "Baixando composição da comissão CTEAMIURDA no(a) senado"
#> [1] "Baixando composição da comissão CTFC no(a) senado"
#> Warning: `cols` is now required.
#> Please use `cols = c(MEMBROS.MEMBROS_ROW)`
#> Warning: `cols` is now required.
#> Please use `cols = c()`
#> # A tibble: 4,562 x 11
#>    cargo id    partido uf    situacao nome  foto  sigla casa  data_inicio
#>    <chr> <chr> <chr>   <chr> <chr>    <chr> <chr> <chr> <chr> <chr>      
#>  1 TITU… 2044… SOLIDA… AC    Titular  Dra.… http… CAPA… cama… 2019-03-11 
#>  2 SUPL… 1413… CIDADA… SP    Suplente Arna… http… CAPA… cama… 2019-03-11 
#>  3 TITU… 2058… PSL     RS    Titular  Marc… http… CAPA… cama… 2019-03-12 
#>  4 TITU… 1436… PSD     CE    Titular  Domi… http… CAPA… cama… 2019-03-12 
#>  5 TITU… 1605… PP      MG    Titular  Dima… http… CAPA… cama… 2019-03-12 
#>  6 TITU… 2044… PSC     MG    Titular  Eucl… http… CAPA… cama… 2019-03-12 
#>  7 TITU… 2044… NA      NA    Titular  Robé… http… CAPA… cama… 2019-03-12 
#>  8 TITU… 2045… PL      MA    Titular  Past… http… CAPA… cama… 2019-03-12 
#>  9 TITU… 2045… PL      MA    Titular  Juni… http… CAPA… cama… 2019-03-12 
#> 10 TITU… 2044… PSL     PR    Titular  Alin… http… CAPA… cama… 2019-03-12 
#> # … with 4,552 more rows, and 1 more variable: data_fim <chr>
…
