Baixa os dados da tramitação de um Projeto de Lei — fetch_tramitacao • agoradigital
…
      isMPV
      Flag indicando se a proposição é MPV

      retry
      Flag indicando se tenta novamente obter o dado após erro

    Value

    Dataframe normalizado com os dados da tramitação de uma proposição no Congresso

    Examples

fetch_tramitacao(91341, "senado")
#> # A tibble: 128 x 9
#>    prop_id casa  data_hora           sequencia texto_tramitacao sigla_local
#>      <int> <chr> <dttm>                  <int> <chr>            <chr>      
#>  1   91341 sena… 2009-05-28 00:00:01         1 "Este processo … PLEG       
#>  2   91341 sena… 2009-05-28 00:00:02         2 "Leitura.\nÀs C… ATA-PLEN   
#>  3   91341 sena… 2009-05-29 00:00:01         3 "Recebido nesta… CCJ        
#>  4   91341 sena… 2009-07-15 00:00:01         4 "Distribuído ao… CCJ        
#>  5   91341 sena… 2009-09-11 00:00:01         5 "Devolvido pelo… CCJ        
#>  6   91341 sena… 2009-09-11 00:00:02         6 "Recebido neste… SSCLSF     
#>  7   91341 sena… 2009-09-15 00:00:01         7 "Leitura do Req… ATA-PLEN   
#>  8   91341 sena… 2009-09-22 00:00:01         8 "Encaminhado ao… SGM        
#>  9   91341 sena… 2009-09-22 00:00:02         9 "A Presidência … ATA-PLEN   
#> 10   91341 sena… 2009-09-23 00:00:01        10 "Recebido nesta… CCJ        
#> # … with 118 more rows, and 3 more variables: id_situacao <int>,
#> #   descricao_situacao <chr>, link_inteiro_teor <chr>
…
