Recupera os eventos e seus respectivos pesos — get_pesos_eventos • agoradigital
…
    Source: R/analyzer.R
    get_pesos_eventos.Rd

    Retorna um dataframe com o superconjunto dos eventos das duas casas (Câmara e Senado) e seus respectivos pesos

get_pesos_eventos()

    Value

    Dataframe contendo evento e peso

    Examples

get_pesos_eventos()
#> # A tibble: 59 x 4
#>    evento                                   tipo    label    peso
#>    <chr>                                    <chr>   <chr>   <dbl>
#>  1 alteracao_de_regime                      serie_a Serie A  0.68
#>  2 apresentacao_parecer                     serie_a Serie A  0.68
#>  3 apresentacao_pl                          serie_c Serie C  0.07
#>  4 aprovacao_materia                        serie_c Serie C  0.07
#>  5 aprovacao_parecer                        serie_a Serie A  0.68
#>  6 aprovacao_projeto                        serie_a Serie A  0.68
#>  7 aprovacao_redacao_final                  serie_a Serie A  0.68
#>  8 aprovacao_requerimento_inversao_pauta    serie_b Serie B  0.25
#>  9 aprovacao_requerimento_retirada_de_pauta serie_b Serie B  0.25
#> 10 aprovacao_substitutivo                   serie_c Serie C  0.07
#> # … with 49 more rows
…
