Analyzer de uma proposição que já está na segunda casa • agoradigital
…
O Analyzer realiza operações de reconhecimento de eventos e fases em dataframes de tramitação da Câmara e do Senado. Para aquelas proposições que já tramitaram na casa de origem e estão agora na casa revisora, temos que identificar os ids das proposições na Câmara e no Senado, com posse dessas informações precisamos chamar apenas a função process_proposicao(id, casa) duas vezes. Depois disso todos os csvs necessários para o módulo view terão sido criados.

id_qualidade_fiscal_senado <- 91341
id_qualidade_fiscal_camara <- 2088990

tramitacao_senado <- agoradigital::process_proposicao(id_qualidade_fiscal_senado, 'senado')

## Warning in mutate_impl(.data, dots): hybrid evaluation forced for
## `row_number`. Please use dplyr::row_number() or library(dplyr) to remove
## this warning.

tramitacao_senado

## # A tibble: 125 x 36
##    codigo_tramitacao numero_autuacao data_tramitacao numero_ordem_tramita…
##                <int>           <int> <date>                          <int>
##  1           1519794               1 2009-05-29                          1
##  2           1548305               1 2009-07-15                          1
##  3           1572693               1 2009-09-11                          1
##  4           1572720               1 2009-09-11                          2
##  5           1574226               1 2009-09-15                          1
##  6           1577434               1 2009-09-22                          1
##  7           1577816               1 2009-09-22                          2
##  8           1577995               1 2009-09-23                          1
##  9           1578654               1 2009-09-24                          1
## 10           1603701               1 2009-11-13                          1
## # ... with 115 more rows, and 32 more variables: texto_tramitacao <chr>,
## #   indicador_recebimento <chr>, data_recebimento <date>,
## #   origem_tramitacao_local_codigo_local <int>,
## #   origem_tramitacao_local_tipo_local <chr>,
## #   origem_tramitacao_local_sigla_casa_local <chr>,
## #   origem_tramitacao_local_nome_casa_local <chr>,
## #   origem_tramitacao_local_sigla_local <chr>,
## #   origem_tramitacao_local_nome_local <chr>,
## #   destino_tramitacao_local_codigo_local <int>,
…
agoradigital::process_proposicao(id_qualidade_fiscal_camara, 'camara')

## Warning in mutate_impl(.data, dots): hybrid evaluation forced for
## `row_number`. Please use dplyr::row_number() or library(dplyr) to remove
## this warning.

## Warning in mutate_impl(.data, dots): hybrid evaluation forced for
## `row_number`. Please use dplyr::row_number() or library(dplyr) to remove
## this warning.

## # A tibble: 28 x 16
##    data_hora           descricao_situac… descricao_trami… despacho id_prop
##    <dttm>              <chr>             <chr>            <chr>      <int>
##  1 2016-06-21 00:00:00 <NA>              Recebimento      "Recebi… 2088990
##  2 2016-06-21 16:37:00 <NA>              Apresentação de… "Aprese… 2088990
##  3 2016-06-21 16:37:00 <NA>              Notificação de … Realiza… 2088990
##  4 2016-06-21 16:38:00 <NA>              Notificação (Ce… Encamin… 2088990
##  5 2016-06-21 18:03:00 <NA>              Encaminhamento   Encamin… 2088990
##  6 2016-06-21 18:11:00 <NA>              Recebimento      Recebim… 2088990
##  7 2016-06-22 00:00:00 <NA>              "Distribuição "  Despach… 2088990
##  8 2016-06-23 11:41:00 <NA>              Encaminhamento   Despach… 2088990
##  9 2016-06-23 11:41:00 <NA>              Notificações     Notific… 2088990
## 10 2016-06-23 11:42:00 <NA>              "Distribuição "  Às Comi… 2088990
## # ... with 18 more rows, and 11 more variables: id_situacao <int>,
## #   id_tipo_tramitacao <chr>, regime <chr>, sequencia <int>,
## #   sigla_orgao <chr>, uri_orgao <chr>, url <chr>, evento <chr>,
## #   local <chr>, casa <chr>, situacao_comissao <chr>
…
