Dados gerados pelo Analyzer na Camara • agoradigital
…
      Source: vignettes/documentacao-dados-analyzer-camara.Rmd
      documentacao-dados-analyzer-camara.Rmd

O analyzer.R realiza operações de reconhecimento e extração dos eventos e as fases nos dataframes das tramitação das proposições na Câmara dos Deputados e no Senado Federal. Como possuem APIs distintas, cada casa possui um analyzer próprio adequado para os dados disponíveis em suas respectivas APIs.

O camara-analyzer.R extrai os locais (Comissões e Plenário), as fases da proposição na casa e eventos que ocorreram durante a tramitação de uma proposição na Câmara.

source(here::here("R/analyzer.R"))
library(magrittr)
library(tidyverse)
id_pl_veneno_camara <- 46249
process_proposicao(id_pl_veneno_camara, 'camara')

## # A tibble: 254 x 16
##    data_hora           descricao_situac… descricao_trami… despacho id_prop
##    <dttm>              <chr>             <chr>            <chr>      <int>
##  1 2002-03-13 00:00:00 Pronta para Pauta Apresentação de… Apresen…   46249
##  2 2002-04-03 00:00:00 <NA>              "Distribuição "  "Despac…   46249
##  3 2002-04-03 00:00:00 <NA>              Notificação de … Apense-…   46249
##  4 2002-04-03 00:00:00 <NA>              Publicação de P… Encamin…   46249
##  5 2002-04-03 00:00:00 <NA>              Encaminhamento   Encamin…   46249
##  6 2002-04-04 00:00:00 <NA>              Recebimento      Recebim…   46249
##  7 2002-04-11 00:00:00 <NA>              Publicação de D… Publica…   46249
##  8 2002-04-11 00:00:00 <NA>              Publicação de P… Encamin…   46249
##  9 2002-04-15 00:00:00 <NA>              Encaminhamento   Encamin…   46249
## 10 2002-04-15 14:18:00 <NA>              Recebimento      Recebim…   46249
## # ... with 244 more rows, and 11 more variables: id_situacao <int>,
## #   id_tipo_tramitacao <chr>, regime <chr>, sequencia <int>,
## #   sigla_orgao <chr>, uri_orgao <chr>, url <chr>, evento <chr>,
## #   local <chr>, casa <chr>, situacao_comissao <chr>
…
