Dados gerados pelo Analyzer no Senado • agoradigital
…
      Source: vignettes/documentacao-dados-analyzer-senado.Rmd
      documentacao-dados-analyzer-senado.Rmd

O analyzer.R realiza operações de reconhecimento e extração dos eventos e as fases nos dataframes das tramitação das proposições na Câmara dos Deputados e no Senado Federal. Como possuem APIs distintas, cada casa possui um analyzer próprio adequado para os dados disponíveis em suas respectivas APIs.

O senado-analyzer.R extrai os locais (Comissões e Plenário), as fases da proposição na casa e os eventos que ocorreram durante a tramitação de uma proposição no Senado.

source(here::here("R/analyzer.R"))
library(magrittr)
library(tidyverse)
id_pl_veneno_senado <- 41703
process_proposicao(id_pl_veneno_senado, 'senado')

## # A tibble: 39 x 46
##    codigo_tramitacao numero_autuacao data_tramitacao numero_ordem_tramita…
##                <int>           <int> <date>                          <int>
##  1            609390               1 1999-09-10                          2
##  2            614496               1 1999-10-07                          1
##  3            614505               1 1999-10-07                          2
##  4            614532               1 1999-10-07                          3
##  5            615847               1 1999-10-19                          1
##  6            615899               1 1999-10-20                          1
##  7            617047               1 1999-10-27                          1
##  8            620072               1 1999-11-12                          1
##  9            620074               1 1999-11-12                          2
## 10            620431               1 1999-11-17                          1
## # ... with 29 more rows, and 42 more variables: texto_tramitacao <chr>,
## #   indicador_recebimento <chr>,
## #   origem_tramitacao_local_codigo_local <int>,
## #   origem_tramitacao_local_tipo_local <chr>,
## #   origem_tramitacao_local_sigla_casa_local <chr>,
## #   origem_tramitacao_local_nome_casa_local <chr>,
## #   origem_tramitacao_local_sigla_local <chr>,
## #   origem_tramitacao_local_nome_local <chr>,
## #   destino_tramitacao_local_codigo_local <int>,
…
