Fases e Eventos de uma Proposição • agoradigital
…
id_qualidade_fiscal_senado <- 91341
id_qualidade_fiscal_camara <- 2088990

Câmara

prop_camara <- agoradigital::fetch_proposicao(id_qualidade_fiscal_camara, 'camara')
tram_camara <- agoradigital::fetch_tramitacao(id_qualidade_fiscal_camara, 'camara', T)

eventos_camara <- agoradigital::process_proposicao(prop_camara, tram_camara, "camara")
eventos_camara %>% 
  select(data_hora, evento, local, casa)

## # A tibble: 28 x 4
##    data_hora           evento             local        casa  
##    <dttm>              <chr>              <chr>        <chr> 
##  1 2016-06-21 00:00:00 <NA>               CD-MESA-PLEN camara
##  2 2016-06-21 16:37:00 apresentacao_da_pl CD-MESA-PLEN camara
##  3 2016-06-21 16:37:00 <NA>               CD-MESA-PLEN camara
##  4 2016-06-21 16:38:00 <NA>               CD-MESA-PLEN camara
##  5 2016-06-21 18:03:00 <NA>               CD-MESA-PLEN camara
##  6 2016-06-21 18:11:00 <NA>               CD-MESA-PLEN camara
##  7 2016-06-22 00:00:00 <NA>               CD-MESA-PLEN camara
##  8 2016-06-23 11:41:00 <NA>               CD-MESA-PLEN camara
##  9 2016-06-23 11:41:00 <NA>               CD-MESA-PLEN camara
## 10 2016-06-23 11:42:00 distribuicao       CD-MESA-PLEN camara
## # ... with 18 more rows
…
Comissões: quando é designada às comissões para que um Relator seja designado, apresente seu Parecer e ele seja votado;

Plenário: quando é encaminhada ao Plenário (isso ocorre quando há divergência entre os Pareceres aprovados dos Relatores nas Comissões).

Senado

prop_senado <- agoradigital::fetch_proposicao(id_qualidade_fiscal_senado, 'senado')
tram_senado <- agoradigital::fetch_tramitacao(id_qualidade_fiscal_senado, 'senado', T)

eventos_senado <- agoradigital::process_proposicao(prop_senado, tram_senado, 'senado')
eventos_senado %>% 
  select(data_hora, evento, local, casa, global)

## # A tibble: 125 x 5
##    data_hora  evento            local casa   global              
##    <date>     <chr>             <chr> <chr>  <chr>               
##  1 2009-05-29 <NA>              CCJ   senado " - Origem (Senado)"
##  2 2009-07-15 designado_relator CCJ   senado " - Origem (Senado)"
##  3 2009-09-11 <NA>              CCJ   senado " - Origem (Senado)"
##  4 2009-09-11 <NA>              CCJ   senado " - Origem (Senado)"
##  5 2009-09-15 <NA>              CCJ   senado " - Origem (Senado)"
##  6 2009-09-22 <NA>              CCJ   senado " - Origem (Senado)"
##  7 2009-09-22 <NA>              CCJ   senado " - Origem (Senado)"
##  8 2009-09-23 <NA>              CCJ   senado " - Origem (Senado)"
##  9 2009-09-24 designado_relator CCJ   senado " - Origem (Senado)"
## 10 2009-11-13 pronta_para_pauta CCJ   senado " - Origem (Senado)"
## # ... with 115 more rows
…
